﻿001	見事な手際だ	VO_judius.judius_sys_0007
002	…ひとつ、伺っても？	VO_celis.celis_sys_0001
003	何かな？	VO_judius.judius_sys_0006
004	なぜ、鬼の気配を察知できたのです？<br>あなたは鬼と対峙した経験がおありで？
005	…………
006	お答えください
007	…………フフ…ハハハハハッ!!	VO_judius.judius_sys_0008
008	…!?	VO_celis.celis_sys_0025
009	そうだな…俺の問いに答えたら<br>答えてやることとしようか	VO_judius.judius_sys_0031
010	三種の神器…“スメラギ”と<br>“カグツチ”の在処はどこだ？	VO_judius.judius_sys_0001
011	…なぜそれを知る必要があるのです？	VO_celis.celis_sys_0001
012	“スメラギ”の在処は見当がついている<br>…恐らく朱鳳の城内だろう…
013	!?
014	俺が本当に知りたいのは、<br>失われた“カグツチ”の秘術だ<br>お前になら、わかるだろう？	VO_judius.judius_sys_0010
015	知りません…！
016	知らないわけがないだろう？<br>…なあ？	VO_judius.judius_sys_0001
017	セリス・“クロウリー”	VO_judius.judius_sys_0007
018	…………!!!	VO_celis.celis_battle_0019
